<svg xmlns="http://www.w3.org/2000/svg" xmlns:xlink="http://www.w3.org/1999/xlink" version="1.1" width="739" height="118" viewBox="0 0 739 118">
<defs>
<clipPath id="clip_0">
<path transform="matrix(1,0,0,-1,-107,477)" d="M0 0H1008V1008H0Z"/>
</clipPath>
<clipPath id="clip_1">
<path transform="matrix(1,0,0,-1,-107,477)" d="M0 .028H1007.971V1007.999H0Z" fill-rule="evenodd"/>
</clipPath>
</defs>
<g clip-path="url(#clip_0)">
<g clip-path="url(#clip_1)">
<path transform="matrix(1,0,0,-1,-107,477)" stroke-width="2.29602" stroke-linecap="butt" stroke-linejoin="round" fill="none" stroke="#3465a4" d="M112.791 448.243V448.413H408.359V424.148"/>
<path transform="matrix(1,0,0,-1,-107,477)" d="M414.34 424.942 408.359 413.008 402.406 424.942H414.34Z" fill="#3465a4" fill-rule="evenodd"/>
<path transform="matrix(1,0,0,-1,-107,477)" stroke-width="3.00467" stroke-linecap="butt" stroke-linejoin="round" fill="none" stroke="#00a933" d="M107.263 387.043H833.131"/>
<path transform="matrix(1,0,0,-1,-107,477)" d="M832.252 393.534 845.263 387.043 832.252 380.523V393.534Z" fill="#00a933" fill-rule="evenodd"/>
<path transform="matrix(1,0,0,-1,-107,477)" d="M178.498 360.057H123.732V413.036H233.263V360.057H178.498Z" fill="#f6f9d4" fill-rule="evenodd"/>
<path transform="matrix(1,0,0,-1,-107,477)" stroke-width=".99211" stroke-linecap="butt" stroke-linejoin="round" fill="none" stroke="#00a933" d="M178.498 360.057H123.732V413.036H233.263V360.057H178.498Z"/>
<text xml:space="preserve" transform="matrix(1 0 -0 1 -107 477)" font-size="15.987" font-family="LiberationSans"><tspan y="-389.934" x="144.822 156.31667 165.20545 173.10303 177.53144 186.40422 191.67993 195.26102 203.19057 212.06336">Rasterize </tspan></text>
<text xml:space="preserve" transform="matrix(1 0 -0 1 -107 477)" font-size="15.987" font-family="LiberationSans"><tspan y="-372.161" x="137.254 145.99889 151.3865 154.8397 168.15688 177.02967 182.32137 190.31487 194.74327 203.61606 207.10123 211.52964">primary hits</tspan></text>
<path transform="matrix(1,0,0,-1,-107,477)" d="M292.649 360.057H237.883V413.036H347.414V360.057H292.649Z" fill="#f6f9d4" fill-rule="evenodd"/>
<path transform="matrix(1,0,0,-1,-107,477)" stroke-width=".99211" stroke-linecap="butt" stroke-linejoin="round" fill="none" stroke="#00a933" d="M292.649 360.057H237.883V413.036H347.414V360.057H292.649Z"/>
<text xml:space="preserve" transform="matrix(1 0 -0 1 -107 477)" font-size="15.987" font-family="LiberationSans"><tspan y="-389.934" x="258.973 270.46763 279.35639 287.25398 291.68238 300.55516 305.83085 309.41194 317.3415 326.21427">Rasterize </tspan></text>
<text xml:space="preserve" transform="matrix(1 0 -0 1 -107 477)" font-size="15.987" font-family="LiberationSans"><tspan y="-372.161" x="261.184 269.08158 277.97035 286.8431 295.71589 304.58866 316.11528">shadows</tspan></text>
<path transform="matrix(1,0,0,-1,-107,477)" d="M408.359 360.057H353.594V413.036H463.124V360.057H408.359Z" fill="#f6f9d4" fill-rule="evenodd"/>
<path transform="matrix(1,0,0,-1,-107,477)" stroke-width=".99211" stroke-linecap="butt" stroke-linejoin="round" fill="none" stroke="#00a933" d="M408.359 360.057H353.594V413.036H463.124V360.057H408.359Z"/>
<text xml:space="preserve" transform="matrix(1 0 -0 1 -107 477)" font-size="15.987" font-family="LiberationSans"><tspan y="-381.033" x="374.202 384.7694 393.64219 398.0546 406.94337 411.35578 416.64747 425.52024 433.54573">Pathtrace</tspan></text>
<path transform="matrix(1,0,0,-1,-107,477)" d="M525.345 360.057H470.58V413.036H580.11V360.057H525.345Z" fill="#f6f9d4" fill-rule="evenodd"/>
<path transform="matrix(1,0,0,-1,-107,477)" stroke-width=".99211" stroke-linecap="butt" stroke-linejoin="round" fill="none" stroke="#00a933" d="M525.345 360.057H470.58V413.036H580.11V360.057H525.345Z"/>
<text xml:space="preserve" transform="matrix(1 0 -0 1 -107 477)" font-size="15.987" font-family="LiberationSans"><tspan y="-381.033" x="496.091 507.58564 516.4744 525.21939 534.09219 537.6733 545.6988">Denoise</tspan></text>
<path transform="matrix(1,0,0,-1,-107,477)" d="M642.359 360.057H587.594V413.036H697.124V360.057H642.359Z" fill="#f6f9d4" fill-rule="evenodd"/>
<path transform="matrix(1,0,0,-1,-107,477)" stroke-width=".99211" stroke-linecap="butt" stroke-linejoin="round" fill="none" stroke="#00a933" d="M642.359 360.057H587.594V413.036H697.124V360.057H642.359Z"/>
<text xml:space="preserve" transform="matrix(1 0 -0 1 -107 477)" font-size="15.987" font-family="LiberationSans"><tspan y="-381.033" x="595.361 605.9284 614.8012 622.79476 627.22317 631.65158 642.18698 647.5746 656.4474 664.345 673.23379 681.2273">Post Process</tspan></text>
<path transform="matrix(1,0,0,-1,-107,477)" d="M757.814 360.057H703.049V413.036H812.58V360.057H757.814Z" fill="#f6f9d4" fill-rule="evenodd"/>
<path transform="matrix(1,0,0,-1,-107,477)" stroke-width=".99211" stroke-linecap="butt" stroke-linejoin="round" fill="none" stroke="#00a933" d="M757.814 360.057H703.049V413.036H812.58V360.057H757.814Z"/>
<text xml:space="preserve" transform="matrix(1 0 -0 1 -107 477)" font-size="15.987" font-family="LiberationSans"><tspan y="-389.934" x="717.052 727.6194 732.991 741.73599 749.7615 758.6343 766.53189 774.5574 778.9858 790.4804 793.9656 798.378">Process Hit </tspan></text>
<text xml:space="preserve" transform="matrix(1 0 -0 1 -107 477)" font-size="15.987" font-family="LiberationSans"><tspan y="-372.161" x="722.75 732.4701 741.3429 750.2157 759.1045 767.9773 776.8501 784.77969">Feedback</tspan></text>
<path transform="matrix(1,0,0,-1,-107,477)" d="M178.498 423.071H123.732V476.05H233.263V423.071H178.498Z" fill="#dee6ef" fill-rule="evenodd"/>
<path transform="matrix(1,0,0,-1,-107,477)" stroke-width=".99211" stroke-linecap="butt" stroke-linejoin="round" fill="none" stroke="#2a6099" d="M178.498 423.071H123.732V476.05H233.263V423.071H178.498Z"/>
<text xml:space="preserve" transform="matrix(1 0 -0 1 -107 477)" font-size="15.987" font-family="LiberationSans"><tspan y="-452.948" x="132.803 143.37039 152.24318 155.82427 159.30944 168.18222 172.59464 184.12126 192.99405 201.86684 210.75562 215.16803 224.05681">Build/Update </tspan></text>
<text xml:space="preserve" transform="matrix(1 0 -0 1 -107 477)" font-size="15.987" font-family="LiberationSans"><tspan y="-435.175" x="149.669 160.2364 169.10919 179.77252 190.41986 199.30864">BLASes</tspan></text>
<path transform="matrix(1,0,0,-1,-107,477)" d="M292.649 423.071H237.883V476.05H347.414V423.071H292.649Z" fill="#dee6ef" fill-rule="evenodd"/>
<path transform="matrix(1,0,0,-1,-107,477)" stroke-width=".99211" stroke-linecap="butt" stroke-linejoin="round" fill="none" stroke="#2a6099" d="M292.649 423.071H237.883V476.05H347.414V423.071H292.649Z"/>
<text xml:space="preserve" transform="matrix(1 0 -0 1 -107 477)" font-size="15.987" font-family="LiberationSans"><tspan y="-444.047" x="252.907 263.47444 272.3472 275.92829 279.41346 288.28623 292.47483 302.19493 311.0677 321.73103">Build TLAS</tspan></text>
</g>
</g>
</svg>